[{"line":1,"elements":[{"line":11,"name":"URL and path test case 2","description":"","id":"url-and-path-test-case-2","type":"scenario","keyword":"Scenario","steps":[{"name":"url \"https:\/\/reqres.in\"","result":{"duration":2124800,"status":"passed"},"match":{"location":"karate","arguments":[]},"keyword":"Given","line":12,"doc_string":{"content_type":"","value":"16:47:18.117 skipping bootstrap configuration: could not find or read file: classpath:karate-config.js","line":12}},{"name":"path \"\/api\/users\"","result":{"duration":13608700,"status":"passed"},"match":{"location":"karate","arguments":[]},"keyword":"And","line":13},{"name":"param page = 2","result":{"duration":2582400,"status":"passed"},"match":{"location":"karate","arguments":[]},"keyword":"And","line":14},{"name":"method get","result":{"duration":832195200,"status":"passed"},"match":{"location":"karate","arguments":[]},"keyword":"When","line":15,"doc_string":{"content_type":"","value":"16:47:18.516 request:\n1 > GET https:\/\/reqres.in\/api\/users?page=2\n1 > Accept-Encoding: gzip,deflate\n1 > Connection: Keep-Alive\n1 > Host: reqres.in\n1 > User-Agent: Apache-HttpClient\/4.5.12 (Java\/1.8.0_251)\n\n16:47:18.954 response time in milliseconds: 434.59\n1 < 200\n1 < Access-Control-Allow-Origin: *\n1 < Age: 4523\n1 < CF-Cache-Status: HIT\n1 < CF-RAY: 5fb4a40748aedcfa-SIN\n1 < Cache-Control: max-age=14400\n1 < Connection: keep-alive\n1 < Content-Type: application\/json; charset=utf-8\n1 < Date: Wed, 02 Dec 2020 11:17:18 GMT\n1 < Etag: W\/\"406-ut0vzoCuidvyMf8arZpMpJ6ZRDw\"\n1 < Expect-CT: max-age=604800, report-uri=\"https:\/\/report-uri.cloudflare.com\/cdn-cgi\/beacon\/expect-ct\"\n1 < NEL: {\"report_to\":\"cf-nel\",\"max_age\":604800}\n1 < Report-To: {\"endpoints\":[{\"url\":\"https:\\\/\\\/a.nel.cloudflare.com\\\/report?s=tVE0HBTpiE6syohbClnxbE2Qm2hxcRgi1w9es9x%2FmjUUQt1o2N8rQM5ZWoNSIRatcfSdoPlFgImw1X78aKtezFmHFKmRdFY9zwU%3D\"}],\"group\":\"cf-nel\",\"max_age\":604800}\n1 < Server: cloudflare\n1 < Set-Cookie: __cfduid=d5913da199533ac9dc61583b0db38ea0e1606907838; expires=Fri, 01-Jan-21 11:17:18 GMT; path=\/; domain=.reqres.in; HttpOnly; SameSite=Lax; Secure\n1 < Transfer-Encoding: chunked\n1 < Vary: Accept-Encoding\n1 < Via: 1.1 vegur\n1 < X-Powered-By: Express\n1 < cf-request-id: 06c4c4d8910000dcfaf8b3f000000001\n{\"page\":2,\"per_page\":6,\"total\":12,\"total_pages\":2,\"data\":[{\"id\":7,\"email\":\"michael.lawson@reqres.in\",\"first_name\":\"Michael\",\"last_name\":\"Lawson\",\"avatar\":\"https:\/\/reqres.in\/img\/faces\/7-image.jpg\"},{\"id\":8,\"email\":\"lindsay.ferguson@reqres.in\",\"first_name\":\"Lindsay\",\"last_name\":\"Ferguson\",\"avatar\":\"https:\/\/reqres.in\/img\/faces\/8-image.jpg\"},{\"id\":9,\"email\":\"tobias.funke@reqres.in\",\"first_name\":\"Tobias\",\"last_name\":\"Funke\",\"avatar\":\"https:\/\/reqres.in\/img\/faces\/9-image.jpg\"},{\"id\":10,\"email\":\"byron.fields@reqres.in\",\"first_name\":\"Byron\",\"last_name\":\"Fields\",\"avatar\":\"https:\/\/reqres.in\/img\/faces\/10-image.jpg\"},{\"id\":11,\"email\":\"george.edwards@reqres.in\",\"first_name\":\"George\",\"last_name\":\"Edwards\",\"avatar\":\"https:\/\/reqres.in\/img\/faces\/11-image.jpg\"},{\"id\":12,\"email\":\"rachel.howell@reqres.in\",\"first_name\":\"Rachel\",\"last_name\":\"Howell\",\"avatar\":\"https:\/\/reqres.in\/img\/faces\/12-image.jpg\"}],\"support\":{\"url\":\"https:\/\/reqres.in\/#support-heading\",\"text\":\"To keep ReqRes free, contributions towards server costs are appreciated!\"}}","line":15}},{"name":"status 200","result":{"duration":10200,"status":"passed"},"match":{"location":"karate","arguments":[]},"keyword":"Then","line":16},{"name":"match response.page == '##'","result":{"duration":12600900,"status":"passed"},"match":{"location":"karate","arguments":[]},"keyword":"And","line":17}]}],"name":"src\/test\/java\/FeatureFiles\/karate10.feature","description":"Feature: Karate Test Suite 10\nUsing URL andPath","id":"feature:-karate-test-suite-10","keyword":"Feature","uri":"src\/test\/java\/FeatureFiles\/karate10.feature"}]