[{"line":1,"elements":[{"line":3,"name":"Calling Test case","description":"","id":"calling-test-case","type":"scenario","keyword":"Scenario","steps":[{"name":"def result = call read('calledFeature.feature')","result":{"duration":100694400,"status":"passed"},"match":{"location":"karate","arguments":[]},"keyword":"*","line":4},{"name":"FeatureFiles\/calledFeature.feature","result":{"duration":0,"status":"passed"},"match":{"location":"karate","arguments":[]},"keyword":"","line":4},{"name":"url \"https:\/\/reqres.in\"","result":{"duration":2258400,"status":"passed"},"match":{"location":"karate","arguments":[]},"keyword":"> Given","line":4,"doc_string":{"content_type":"","value":"19:04:14.133 From karate-config","line":4}},{"name":"path \"\/api\/users?page=2\"","result":{"duration":104600,"status":"passed"},"match":{"location":"karate","arguments":[]},"keyword":"> And","line":5},{"name":"method get","result":{"duration":85742700,"status":"passed"},"match":{"location":"karate","arguments":[]},"keyword":"> When","line":6,"doc_string":{"content_type":"","value":"19:04:14.149 request:\n1 > GET https:\/\/reqres.in\/api\/users%3Fpage=2\n1 > Accept-Encoding: gzip,deflate\n1 > Connection: Keep-Alive\n1 > Host: reqres.in\n1 > User-Agent: Apache-HttpClient\/4.5.12 (Java\/1.8.0_251)\n\n19:04:14.227 response time in milliseconds: 81.59\n1 < 200\n1 < Access-Control-Allow-Origin: *\n1 < Age: 6887\n1 < CF-Cache-Status: HIT\n1 < CF-RAY: 5fbda9f8f92a2e40-BOM\n1 < Cache-Control: max-age=14400\n1 < Connection: keep-alive\n1 < Content-Type: application\/json; charset=utf-8\n1 < Date: Thu, 03 Dec 2020 13:34:13 GMT\n1 < Etag: W\/\"2c1-N6Rqerxquq2kgQhL51EiSg4x0R8\"\n1 < Expect-CT: max-age=604800, report-uri=\"https:\/\/report-uri.cloudflare.com\/cdn-cgi\/beacon\/expect-ct\"\n1 < NEL: {\"report_to\":\"cf-nel\",\"max_age\":604800}\n1 < Report-To: {\"endpoints\":[{\"url\":\"https:\\\/\\\/a.nel.cloudflare.com\\\/report?s=vg2PGT7mBd77Vj7kISESvXYS1U6Y6H3b7HZkOq%2BtbDTjrzO1w%2FnhsN%2Foa3WtJCzChf9Q%2BkjMmdNEO21T1LKi3Ju9Wholi5FC5nk%3D\"}],\"group\":\"cf-nel\",\"max_age\":604800}\n1 < Server: cloudflare\n1 < Set-Cookie: __cfduid=d0b67becc780fe4aed1f3249c992d0ae51607002453; expires=Sat, 02-Jan-21 13:34:13 GMT; path=\/; domain=.reqres.in; HttpOnly; SameSite=Lax; Secure\n1 < Transfer-Encoding: chunked\n1 < Vary: Accept-Encoding\n1 < Via: 1.1 vegur\n1 < X-Powered-By: Express\n1 < cf-request-id: 06ca688f9e00002e4026954000000001\n{\"page\":1,\"per_page\":6,\"total\":12,\"total_pages\":2,\"data\":[{\"id\":1,\"name\":\"cerulean\",\"year\":2000,\"color\":\"#98B2D1\",\"pantone_value\":\"15-4020\"},{\"id\":2,\"name\":\"fuchsia rose\",\"year\":2001,\"color\":\"#C74375\",\"pantone_value\":\"17-2031\"},{\"id\":3,\"name\":\"true red\",\"year\":2002,\"color\":\"#BF1932\",\"pantone_value\":\"19-1664\"},{\"id\":4,\"name\":\"aqua sky\",\"year\":2003,\"color\":\"#7BC4C4\",\"pantone_value\":\"14-4811\"},{\"id\":5,\"name\":\"tigerlily\",\"year\":2004,\"color\":\"#E2583E\",\"pantone_value\":\"17-1456\"},{\"id\":6,\"name\":\"blue turquoise\",\"year\":2005,\"color\":\"#53B0AE\",\"pantone_value\":\"15-5217\"}],\"support\":{\"url\":\"https:\/\/reqres.in\/#support-heading\",\"text\":\"To keep ReqRes free, contributions towards server costs are appreciated!\"}}","line":6}},{"name":"status 200","result":{"duration":16300,"status":"passed"},"match":{"location":"karate","arguments":[]},"keyword":"> Then","line":7},{"name":"match response.page == \"##\"","result":{"duration":655800,"status":"passed"},"match":{"location":"karate","arguments":[]},"keyword":"> And","line":8},{"name":"print result","result":{"duration":5045300,"status":"passed"},"match":{"location":"karate","arguments":[]},"keyword":"*","line":5,"doc_string":{"content_type":"","value":"19:04:14.242 [print] {\n  \"__arg\": null,\n  \"baseUrl\": \"https:\/\/reqres.in\",\n  \"responseType\": \"json\",\n  \"responseHeaders\": {\n    \"Date\": [\n      \"Thu, 03 Dec 2020 13:34:13 GMT\"\n    ],\n    \"Content-Type\": [\n      \"application\/json; charset=utf-8\"\n    ],\n    \"Transfer-Encoding\": [\n      \"chunked\"\n    ],\n    \"Connection\": [\n      \"keep-alive\"\n    ],\n    \"Set-Cookie\": [\n      \"__cfduid=d0b67becc780fe4aed1f3249c992d0ae51607002453; expires=Sat, 02-Jan-21 13:34:13 GMT; path=\/; domain=.reqres.in; HttpOnly; SameSite=Lax; Secure\"\n    ],\n    \"X-Powered-By\": [\n      \"Express\"\n    ],\n    \"Access-Control-Allow-Origin\": [\n      \"*\"\n    ],\n    \"Etag\": [\n      \"W\/\\\"2c1-N6Rqerxquq2kgQhL51EiSg4x0R8\\\"\"\n    ],\n    \"Via\": [\n      \"1.1 vegur\"\n    ],\n    \"Cache-Control\": [\n      \"max-age=14400\"\n    ],\n    \"CF-Cache-Status\": [\n      \"HIT\"\n    ],\n    \"Age\": [\n      \"6887\"\n    ],\n    \"cf-request-id\": [\n      \"06ca688f9e00002e4026954000000001\"\n    ],\n    \"Expect-CT\": [\n      \"max-age=604800, report-uri=\\\"https:\/\/report-uri.cloudflare.com\/cdn-cgi\/beacon\/expect-ct\\\"\"\n    ],\n    \"Report-To\": [\n      \"{\\\"endpoints\\\":[{\\\"url\\\":\\\"https:\\\\\/\\\\\/a.nel.cloudflare.com\\\\\/report?s=vg2PGT7mBd77Vj7kISESvXYS1U6Y6H3b7HZkOq%2BtbDTjrzO1w%2FnhsN%2Foa3WtJCzChf9Q%2BkjMmdNEO21T1LKi3Ju9Wholi5FC5nk%3D\\\"}],\\\"group\\\":\\\"cf-nel\\\",\\\"max_age\\\":604800}\"\n    ],\n    \"NEL\": [\n      \"{\\\"report_to\\\":\\\"cf-nel\\\",\\\"max_age\\\":604800}\"\n    ],\n    \"Vary\": [\n      \"Accept-Encoding\"\n    ],\n    \"Server\": [\n      \"cloudflare\"\n    ],\n    \"CF-RAY\": [\n      \"5fbda9f8f92a2e40-BOM\"\n    ]\n  },\n  \"listUsers\": \"\/api\/users?page=2\",\n  \"responseTime\": 82,\n  \"response\": {\n    \"per_page\": 6,\n    \"total\": 12,\n    \"data\": [\n      {\n        \"color\": \"#98B2D1\",\n        \"year\": 2000,\n        \"name\": \"cerulean\",\n        \"id\": 1,\n        \"pantone_value\": \"15-4020\"\n      },\n      {\n        \"color\": \"#C74375\",\n        \"year\": 2001,\n        \"name\": \"fuchsia rose\",\n        \"id\": 2,\n        \"pantone_value\": \"17-2031\"\n      },\n      {\n        \"color\": \"#BF1932\",\n        \"year\": 2002,\n        \"name\": \"true red\",\n        \"id\": 3,\n        \"pantone_value\": \"19-1664\"\n      },\n      {\n        \"color\": \"#7BC4C4\",\n        \"year\": 2003,\n        \"name\": \"aqua sky\",\n        \"id\": 4,\n        \"pantone_value\": \"14-4811\"\n      },\n      {\n        \"color\": \"#E2583E\",\n        \"year\": 2004,\n        \"name\": \"tigerlily\",\n        \"id\": 5,\n        \"pantone_value\": \"17-1456\"\n      },\n      {\n        \"color\": \"#53B0AE\",\n        \"year\": 2005,\n        \"name\": \"blue turquoise\",\n        \"id\": 6,\n        \"pantone_value\": \"15-5217\"\n      }\n    ],\n    \"page\": 1,\n    \"total_pages\": 2,\n    \"support\": {\n      \"text\": \"To keep ReqRes free, contributions towards server costs are appreciated!\",\n      \"url\": \"https:\/\/reqres.in\/#support-heading\"\n    }\n  },\n  \"requestTimeStamp\": 1607002454149,\n  \"responseStatus\": 200,\n  \"__loop\": -1,\n  \"responseCookies\": {\n    \"__cfduid\": {\n      \"name\": \"__cfduid\",\n      \"value\": \"d0b67becc780fe4aed1f3249c992d0ae51607002453\",\n      \"domain\": \"reqres.in\",\n      \"path\": \"\/\",\n      \"expires\": \"1609594453000\",\n      \"persistent\": \"true\",\n      \"secure\": \"true\"\n    }\n  }\n}","line":5}},{"name":"match result.responseType == \"json\"","result":{"duration":5108500,"status":"passed"},"match":{"location":"karate","arguments":[]},"keyword":"*","line":6},{"name":"match result.responseHeaders.Transfer-Encoding[0] == \"chunked\"","result":{"duration":8316100,"status":"passed"},"match":{"location":"karate","arguments":[]},"keyword":"*","line":7},{"name":"match result.response.data[0].name == \"cerulean\"","result":{"duration":4334900,"status":"passed"},"match":{"location":"karate","arguments":[]},"keyword":"*","line":8,"doc_string":{"content_type":"","value":"19:04:14.258 after scenario inside config","line":8}}]}],"name":"FeatureFiles\/callingFeature.feature","description":"Calling Test Suite","id":"calling-test-suite","keyword":"Feature","uri":"FeatureFiles\/callingFeature.feature"}]