[{"line":1,"elements":[{"line":4,"name":"Reading global variable TC1","description":"","id":"reading-global-variable-tc1","type":"scenario","keyword":"Scenario","steps":[{"name":"url baseUrl","result":{"duration":22500,"status":"passed"},"match":{"location":"karate","arguments":[]},"keyword":"Given","line":5,"doc_string":{"content_type":"","value":"19:04:17.383 From karate-config","line":5}},{"name":"path listUsers","result":{"duration":11000,"status":"passed"},"match":{"location":"karate","arguments":[]},"keyword":"And","line":6},{"name":"method get","result":{"duration":66495100,"status":"passed"},"match":{"location":"karate","arguments":[]},"keyword":"And","line":7,"doc_string":{"content_type":"","value":"19:04:17.383 request:\n1 > GET https:\/\/reqres.in\/api\/users%3Fpage=2\n1 > Accept-Encoding: gzip,deflate\n1 > Connection: Keep-Alive\n1 > Host: reqres.in\n1 > User-Agent: Apache-HttpClient\/4.5.12 (Java\/1.8.0_251)\n\n19:04:17.445 response time in milliseconds: 64.39\n1 < 200\n1 < Access-Control-Allow-Origin: *\n1 < Age: 6891\n1 < CF-Cache-Status: HIT\n1 < CF-RAY: 5fbdaa0d284d31db-BOM\n1 < Cache-Control: max-age=14400\n1 < Connection: keep-alive\n1 < Content-Type: application\/json; charset=utf-8\n1 < Date: Thu, 03 Dec 2020 13:34:17 GMT\n1 < Etag: W\/\"2c1-N6Rqerxquq2kgQhL51EiSg4x0R8\"\n1 < Expect-CT: max-age=604800, report-uri=\"https:\/\/report-uri.cloudflare.com\/cdn-cgi\/beacon\/expect-ct\"\n1 < NEL: {\"report_to\":\"cf-nel\",\"max_age\":604800}\n1 < Report-To: {\"endpoints\":[{\"url\":\"https:\\\/\\\/a.nel.cloudflare.com\\\/report?s=VZtdCcYke6EpWhJF5BZNkeiLrlmVF7pI%2BRT95gAVC5AedxcDjoxBYTp%2F%2BfwhTpHd5zGsAptLMNRTbSvP%2F9UztYDyj9o0qrVE1Gk%3D\"}],\"group\":\"cf-nel\",\"max_age\":604800}\n1 < Server: cloudflare\n1 < Set-Cookie: __cfduid=d06410d3e53a08414be555d1559d3e3021607002457; expires=Sat, 02-Jan-21 13:34:17 GMT; path=\/; domain=.reqres.in; HttpOnly; SameSite=Lax; Secure\n1 < Transfer-Encoding: chunked\n1 < Vary: Accept-Encoding\n1 < Via: 1.1 vegur\n1 < X-Powered-By: Express\n1 < cf-request-id: 06ca689c3c000031db30006000000001\n{\"page\":1,\"per_page\":6,\"total\":12,\"total_pages\":2,\"data\":[{\"id\":1,\"name\":\"cerulean\",\"year\":2000,\"color\":\"#98B2D1\",\"pantone_value\":\"15-4020\"},{\"id\":2,\"name\":\"fuchsia rose\",\"year\":2001,\"color\":\"#C74375\",\"pantone_value\":\"17-2031\"},{\"id\":3,\"name\":\"true red\",\"year\":2002,\"color\":\"#BF1932\",\"pantone_value\":\"19-1664\"},{\"id\":4,\"name\":\"aqua sky\",\"year\":2003,\"color\":\"#7BC4C4\",\"pantone_value\":\"14-4811\"},{\"id\":5,\"name\":\"tigerlily\",\"year\":2004,\"color\":\"#E2583E\",\"pantone_value\":\"17-1456\"},{\"id\":6,\"name\":\"blue turquoise\",\"year\":2005,\"color\":\"#53B0AE\",\"pantone_value\":\"15-5217\"}],\"support\":{\"url\":\"https:\/\/reqres.in\/#support-heading\",\"text\":\"To keep ReqRes free, contributions towards server costs are appreciated!\"}}","line":7}},{"name":"status 200","result":{"duration":12200,"status":"passed"},"match":{"location":"karate","arguments":[]},"keyword":"Then","line":8,"doc_string":{"content_type":"","value":"19:04:17.445 after scenario inside config","line":8}}]}],"name":"FeatureFiles\/karateConfigExample.feature","description":"Karate config suite file\nReading the global variable from karate-config js file","id":"karate-config-suite-file","keyword":"Feature","uri":"FeatureFiles\/karateConfigExample.feature"}]