[{"line":1,"elements":[{"line":3,"name":"URL and path test case 1","description":"","id":"url-and-path-test-case-1","type":"scenario","keyword":"Scenario","steps":[{"name":"url \"https:\/\/reqres.in\"","result":{"duration":1912000,"status":"passed"},"match":{"location":"karate","arguments":[]},"keyword":"Given","line":4,"doc_string":{"content_type":"","value":"19:04:13.336 From karate-config","line":4}},{"name":"path \"\/api\/users?page=2\"","result":{"duration":1639000,"status":"passed"},"match":{"location":"karate","arguments":[]},"keyword":"And","line":5},{"name":"method get","result":{"duration":623150100,"status":"passed"},"match":{"location":"karate","arguments":[]},"keyword":"When","line":6,"doc_string":{"content_type":"","value":"19:04:13.695 request:\n1 > GET https:\/\/reqres.in\/api\/users%3Fpage=2\n1 > Accept-Encoding: gzip,deflate\n1 > Connection: Keep-Alive\n1 > Host: reqres.in\n1 > User-Agent: Apache-HttpClient\/4.5.12 (Java\/1.8.0_251)\n\n19:04:14.055 response time in milliseconds: 357.13\n1 < 200\n1 < Access-Control-Allow-Origin: *\n1 < Age: 6887\n1 < CF-Cache-Status: HIT\n1 < CF-RAY: 5fbda9f7ab2d2e41-BOM\n1 < Cache-Control: max-age=14400\n1 < Connection: keep-alive\n1 < Content-Type: application\/json; charset=utf-8\n1 < Date: Thu, 03 Dec 2020 13:34:13 GMT\n1 < Etag: W\/\"2c1-N6Rqerxquq2kgQhL51EiSg4x0R8\"\n1 < Expect-CT: max-age=604800, report-uri=\"https:\/\/report-uri.cloudflare.com\/cdn-cgi\/beacon\/expect-ct\"\n1 < NEL: {\"report_to\":\"cf-nel\",\"max_age\":604800}\n1 < Report-To: {\"endpoints\":[{\"url\":\"https:\\\/\\\/a.nel.cloudflare.com\\\/report?s=50oSxxYXz19cC9BuE6kWA4sFLA%2BVYhx5%2Fzk2hKCCo%2FbpUrnd0QV2KKhAaTLgDrR9H8geoiKzOCucw69Z3gBZmlEmERpEa%2B1aBsw%3D\"}],\"group\":\"cf-nel\",\"max_age\":604800}\n1 < Server: cloudflare\n1 < Set-Cookie: __cfduid=dfd65c40c2395898005b440e467785ef71607002453; expires=Sat, 02-Jan-21 13:34:13 GMT; path=\/; domain=.reqres.in; HttpOnly; SameSite=Lax; Secure\n1 < Transfer-Encoding: chunked\n1 < Vary: Accept-Encoding\n1 < Via: 1.1 vegur\n1 < X-Powered-By: Express\n1 < cf-request-id: 06ca688ec500002e4194b7c000000001\n{\"page\":1,\"per_page\":6,\"total\":12,\"total_pages\":2,\"data\":[{\"id\":1,\"name\":\"cerulean\",\"year\":2000,\"color\":\"#98B2D1\",\"pantone_value\":\"15-4020\"},{\"id\":2,\"name\":\"fuchsia rose\",\"year\":2001,\"color\":\"#C74375\",\"pantone_value\":\"17-2031\"},{\"id\":3,\"name\":\"true red\",\"year\":2002,\"color\":\"#BF1932\",\"pantone_value\":\"19-1664\"},{\"id\":4,\"name\":\"aqua sky\",\"year\":2003,\"color\":\"#7BC4C4\",\"pantone_value\":\"14-4811\"},{\"id\":5,\"name\":\"tigerlily\",\"year\":2004,\"color\":\"#E2583E\",\"pantone_value\":\"17-1456\"},{\"id\":6,\"name\":\"blue turquoise\",\"year\":2005,\"color\":\"#53B0AE\",\"pantone_value\":\"15-5217\"}],\"support\":{\"url\":\"https:\/\/reqres.in\/#support-heading\",\"text\":\"To keep ReqRes free, contributions towards server costs are appreciated!\"}}","line":6}},{"name":"status 200","result":{"duration":19300,"status":"passed"},"match":{"location":"karate","arguments":[]},"keyword":"Then","line":7},{"name":"match response.page == \"##\"","result":{"duration":4181800,"status":"passed"},"match":{"location":"karate","arguments":[]},"keyword":"And","line":8,"doc_string":{"content_type":"","value":"19:04:14.070 after scenario inside config","line":8}}]}],"name":"FeatureFiles\/calledFeature.feature","description":"Called Test Suite","id":"called-test-suite","keyword":"Feature","uri":"FeatureFiles\/calledFeature.feature"}]